::1:: Solve the following
( 31245 - 4510)+2134=
{
=28869
~28870
~28896
~28770
}



::1:: Solve the following
(7643 + 3214)-678 =
{
~10197
=10179
~10180
~10280
}




::1:: Solve the following
(12345 - 9807)-290=
{
=2248
~2148
~2284
~2250
}


::1:: Solve the following
67143+20034-3214=
{
~83940
~83937
~83936
=83963
}



::1:: Solve the following
12383-2044+124=
{
~10453
=10463
~10436
~10466
}



::1:: Subtract 2346 from the sum of 4531 and 7621
{
=9806
~9860
~9800
~9812
}



::1:: From 56890 subtract the difference of 4560 and 230
{
~52000
~52500
=52560
~52506
}



::1:: There are 34005 books in library. 2130 books are issued and 4679 new books are added to new stock. How many books are left in the library?
{
~36455
=36554
~36545
~36500
}



::1:: Tom has Rs. 5679.He bought a T-shirt of Rs.799 and purse of Rs.2370.How much money is still left with Tom?
{
~2509
~2501
=2510
~2500
}



::1:: In a village, there are 3215 women, 6570 men and the rest are children. If the total population of the village is 567213 then find the number of children.
{
=557428
~557482
~557400
~557824
}

::1:: Out of 8256 mangoes, 2345 mangoes were ripe and 1679 were green. Rest of the mangoes were rotten. Find the number of rotten mangoes.
{
~2342
=4232
~4223
~4200
}



::1:: Aaron purchased a box that can hold 5100 books.Terry had 2387 books Jessica had 210 books and Anand had 1894 books. Will all the books fit in the box? How many books will be left?
{
=Yes
~No
~Not enough information
~None of the above
}


::1:: Out of 6789 students in a school, 1278 come by school bus and 3451 by walk. How many come on bicycles?
{
~2000
~2006
=2060
~2004
}



::1:: The sum of two number is 4589 .If one of the number is 1245 then find the other number.
{
~3300
=3344
~3340
~3304
}



::1:: Freya earned Rs. 12000 in a month and spent Rs. 5600. Find his savings?
{
 6040
 6000
=6400
 6004
}



::1:: Find the difference between greatest four digit number and least four digit number.
{
=8999
~8009
~8000
~9000
}



::1:: The difference between two numbers is 450 and the smaller number is 320. Find the greater number.
{
=770
~707
~700
~77
}



::1:: A farmer had 4500 kg of wheat. He sold 2650 kg of wheat and gave 120 kg of wheat to his brother. Now how many kg of wheat does he have?
{
~1467
~1703
~1700
=1730
}



::1:: Rita had Rs.200.She wanted to buy a doll that costs Rs. 450.How much more money does she need to buy a doll?
{
~205
~200
=250
~None of the above
}



::1:: Subtract the difference of 5400 and 3450 from 4000?
{
~2005
~2000
=2050
~2001
}